TITLE 🔧
…
<img src="img/us-general-economic-characteristic-acs-2017.png" width="85%" style="display: block; margin: auto;" />

.footnote[
Source: [US Census Fact Finder, General Economic Characteristics, ACS 2017](https://factfinder.census.gov/faces/tableservices/jsf/pages/productview.xhtml?pid=ACS_17_5YR_DP03)
]

---

## Displaying vs. summarizing data

.pull-left[

```
## # A tibble: 87 x 3
##   name           height  mass
##   <chr>           <int> <dbl>
## 1 Luke Skywalker    172    77
## 2 C-3PO             167    75
## 3 R2-D2              96    32
## 4 Darth Vader       202   136
## 5 Leia Organa       150    49
## 6 Owen Lars         178   120
## # ... with 81 more rows
```
…
