Measurement
…
```r
# Ordinal Example
library(ggplot2movies)
data(movies)
variable<-movies$rating
head(movies[!is.na(movies$budget),], n=10) 		# First ten rows of data, with a non-missing budget
```

```
## # A tibble: 10 x 24
##   title   year length budget rating votes    r1    r2    r3    r4
##   <chr>  <int>  <int>  <int>  <dbl> <int> <dbl> <dbl> <dbl> <dbl>
## 1 'G' M~  1935     85  4.5e5    7.2   281   0     4.5   4.5   4.5
## 2 'Mano~  1966     74  1.9e4    1.6  7996  74.5   4.5   4.5   4.5
## 3 'Til ~  1997    113  2.3e7    4.8   799   4.5   4.5   4.5  14.5
## 4 .com ~  2002     96  5  e6    3.7   271  64.5   4.5   4.5   4.5
## 5 10 Th~  1999     97  1.6e7    6.7 19095   4.5   4.5   4.5   4.5
## 6 100 M~  2002     98  1.1e6    5.6   181   4.5   4.5   4.5   4.5
## # ... with 4 more rows, and 14 more variables: r5 <dbl>,
## #   r6 <dbl>, r7 <dbl>, r8 <dbl>, r9 <dbl>, r10 <dbl>,
## #   mpaa <chr>, Action <int>, Animation <int>, Comedy <int>,
## #   Drama <int>, Documentary <int>, Romance <int>, Short <int>
```
…
